{"page":1,"total_results":10000,"total_pages":500,"results":[{"popularity":512.222,"vote_count":3411,"video":false,"poster_path":"\/udDclJoHjfjb8Ekgsd4FDteOkCU.jpg","id":475557,"adult":false,"backdrop_path":"\/n6bUvigpRFqSwmPp1m2YADdbRBc.jpg","original_language":"en","original_title":"Joker","genre_ids":[80,18,53],"title":"Joker","vote_average":8.6,"overview":"During the 1980s, a failed stand-up comedian is driven insane and turns to a life of crime and chaos in Gotham City while becoming an infamous psychopathic crime figure.","release_date":"2019-10-04"},{"popularity":263.548,"vote_count":3047,"video":false,"poster_path":"\/2bXbqYdUdNVa8VIWXVfclP2ICtT.jpg","id":420818,"adult":false,"backdrop_path":"\/nRXO2SnOA75OsWhNhXstHB8ZmI3.jpg","original_language":"en","original_title":"The Lion King","genre_ids":[12,16,18],"title":"The Lion King","vote_average":7.1,"overview":"Simba idolises his father, King Mufasa, and takes to heart his own royal destiny. But not everyone in the kingdom celebrates the new cub's arrival. Scar, Mufasa's brother—and former heir to the throne—has plans of his own. The battle for Pride Rock is ravaged with betrayal, tragedy and drama, ultimately resulting in Simba's exile. With help from a curious pair of newfound friends, Simba will have to figure out how to grow up and take back what is rightfully his.","release_date":"2019-07-19"},{"popularity":193.256,"vote_count":947,"video":false,"poster_path":"\/ePXuKdXZuJx8hHMNr2yM4jY2L7Z.jpg","id":559969,"adult":false,"backdrop_path":"\/uLXK1LQM28XovWHPao3ViTeggXA.jpg","original_language":"en","original_title":"El Camino: A Breaking Bad Movie","genre_ids":[80,18,53],"title":"El Camino: A Breaking Bad Movie","vote_average":7.2,"overview":"In the wake of his dramatic escape from captivity, Jesse Pinkman must come to terms with his past in order to forge some kind of future.","release_date":"2019-10-11"},{"popularity":236.699,"vote_count":147,"video":false,"poster_path":"\/vloNTScJ3w7jwNwtNGoG8DbTThv.jpg","id":420809,"adult":false,"backdrop_path":"\/skvI4rYFrKXS73BJxWGH54Omlvv.jpg","original_language":"en","original_title":"Maleficent: Mistress of Evil","genre_ids":[12,14,10751],"title":"Maleficent: Mistress of Evil","vote_average":7,"overview":"Maleficent and her goddaughter Aurora begin to question the complex family ties that bind them as they are pulled in different directions by impending nuptials, unexpected allies, and dark new forces at play.","release_date":"2019-10-18"},{"popularity":154.566,"vote_count":2713,"video":false,"poster_path":"\/w9kR8qbmQ01HwnvK4alvnQ2ca0L.jpg","id":301528,"adult":false,"backdrop_path":"\/m67smI1IIMmYzCl9axvKNULVKLr.jpg","original_language":"en","original_title":"Toy Story 4","genre_ids":[12,16,35,14,10751],"title":"Toy Story 4","vote_average":7.6,"overview":"Woody has always been confident about his place in the world and that his priority is taking care of his kid, whether that's Andy or Bonnie. But when Bonnie adds a reluctant new toy called \"Forky\" to her room, a road trip adventure alongside old and new friends will show Woody how big the world can be for a toy.","release_date":"2019-06-21"},{"popularity":136.207,"vote_count":309,"video":false,"poster_path":"\/uTALxjQU8e1lhmNjP9nnJ3t2pRU.jpg","id":453405,"adult":false,"backdrop_path":"\/c3F4P2oauA7IQmy4hM0OmRt2W7d.jpg","original_language":"en","original_title":"Gemini Man","genre_ids":[28,53],"title":"Gemini Man","vote_average":5.9,"overview":"Henry Brogen, an aging assassin tries to get out of the business but finds himself in the ultimate battle: fighting his own clone who is 25 years younger than him and at the peak of his abilities.","release_date":"2019-10-11"},{"popularity":164.512,"vote_count":4536,"video":false,"poster_path":"\/lcq8dVxeeOqHvvgcte707K0KVx5.jpg","id":429617,"adult":false,"backdrop_path":"\/5myQbDzw3l8K9yofUXRJ4UTVgam.jpg","original_language":"en","original_title":"Spider-Man: Far from Home","genre_ids":[28,12,878],"title":"Spider-Man: Far from Home","vote_average":7.6,"overview":"Peter Parker and his friends go on a summer trip to Europe. However, they will hardly be able to rest - Peter will have to agree to help Nick Fury uncover the mystery of creatures that cause natural disasters and destruction throughout the continent.","release_date":"2019-07-02"},{"popularity":148.415,"vote_count":1563,"video":false,"poster_path":"\/keym7MPn1icW1wWfzMnW3HeuzWU.jpg","id":384018,"adult":false,"backdrop_path":"\/qAhedRxRYWZAgZ8O8pHIl6QHdD7.jpg","original_language":"en","original_title":"Fast & Furious Presents: Hobbs & Shaw","genre_ids":[28],"title":"Fast & Furious Presents: Hobbs & Shaw","vote_average":6.5,"overview":"A spinoff of The Fate of the Furious, focusing on Johnson's US Diplomatic Security Agent Luke Hobbs forming an unlikely alliance with Statham's Deckard Shaw.","release_date":"2019-08-02"},{"popularity":132.662,"vote_count":1636,"video":false,"poster_path":"\/zfE0R94v1E8cuKAerbskfD3VfUt.jpg","id":474350,"adult":false,"backdrop_path":"\/8moTOzunF7p40oR5XhlDvJckOSW.jpg","original_language":"en","original_title":"It Chapter Two","genre_ids":[27],"title":"It Chapter Two","vote_average":7,"overview":"27 years after overcoming the malevolent supernatural entity Pennywise, the former members of the Losers' Club, who have grown up and moved away from Derry, are brought back together by a devastating phone call.","release_date":"2019-09-06"},{"popularity":127.704,"vote_count":3783,"video":false,"poster_path":"\/3iYQTLGoy7QnjcUYRJy4YrAgGvp.jpg","id":420817,"adult":false,"backdrop_path":"\/rVqY0Bo4Npf6EIONUROxjYAJfmD.jpg","original_language":"en","original_title":"Aladdin","genre_ids":[12,35,14,10749,10751],"title":"Aladdin","vote_average":7.1,"overview":"A kindhearted street urchin named Aladdin embarks on a magical adventure after finding a lamp that releases a wisecracking genie while a power-hungry Grand Vizier vies for the same lamp that has the power to make their deepest wishes come true.","release_date":"2019-05-24"},{"popularity":150.391,"vote_count":8231,"video":false,"poster_path":"\/jpfkzbIXgKZqCZAkEkFH2VYF63s.jpg","id":920,"adult":false,"backdrop_path":"\/a1MlbLBk5Sy6YvMbSuKfwGlDVlb.jpg","original_language":"en","original_title":"Cars","genre_ids":[12,16,35,10751],"title":"Cars","vote_average":6.7,"overview":"Lightning McQueen, a hotshot rookie race car driven to succeed, discovers that life is about the journey, not the finish line, when he finds himself unexpectedly detoured in the sleepy Route 66 town of Radiator Springs. On route across the country to the big Piston Cup Championship in California to compete against two seasoned pros, McQueen gets to know the town's offbeat characters.","release_date":"2006-06-09"},{"popularity":120.941,"vote_count":5,"video":false,"poster_path":"\/mAWBfTDAmfpvQGMVFuzuVl49N1P.jpg","id":449924,"adult":false,"backdrop_path":"\/ekP6EVxL81lZ4ivcqPsoZ72rY0h.jpg","original_language":"cn","original_title":"葉問4","genre_ids":[28,18,36],"title":"Ip Man 4: The Finale","vote_average":6.3,"overview":"Ip Man 4 is an upcoming Hong Kong biographical martial arts film directed by Wilson Yip and produced by Raymond Wong. It is the fourth in the Ip Man film series based on the life of the Wing Chun grandmaster of the same name and features Donnie Yen reprising the role. The film began production in April 2018 and ended in July the same year.","release_date":"2019-10-18"},{"popularity":92.571,"vote_count":2974,"video":false,"poster_path":"\/ziEuG1essDuWuC5lpWUaw1uXY2O.jpg","id":458156,"adult":false,"backdrop_path":"\/stemLQMLDrlpfIlZ5OjllOPT8QX.jpg","original_language":"en","original_title":"John Wick: Chapter 3 - Parabellum","genre_ids":[28,80,53],"title":"John Wick: Chapter 3 - Parabellum","vote_average":7.1,"overview":"Super-assassin John Wick returns with a $14 million price tag on his head and an army of bounty-hunting killers on his trail. After killing a member of the shadowy international assassin’s guild, the High Table, John Wick is excommunicado, but the world’s most ruthless hit men and women await his every turn.","release_date":"2019-05-17"},{"popularity":96.842,"vote_count":52,"video":false,"poster_path":"\/pIcV8XXIIvJCbtPoxF9qHMKdRr2.jpg","id":338967,"adult":false,"backdrop_path":"\/jCCdt0e8Xe9ttvevD4S3TSMNdH.jpg","original_language":"en","original_title":"Zombieland: Double Tap","genre_ids":[28,35,27],"title":"Zombieland: Double Tap","vote_average":7.1,"overview":"The group will face a new zombie threat as a new breed of zombie has developed. This new super-zombie type is faster, bigger, and stronger than the previous strain of zombies and harder to kill. These super-zombies have started grouping up into a horde going from city to city leaving a path of destruction behind them.","release_date":"2019-10-18"},{"popularity":94.041,"vote_count":2374,"video":false,"poster_path":"\/8j58iEBw9pOXFD2L0nt0ZXeHviB.jpg","id":466272,"adult":false,"backdrop_path":"\/kKTPv9LKKs5L3oO1y5FNObxAPWI.jpg","original_language":"en","original_title":"Once Upon a Time... in Hollywood","genre_ids":[35,18],"title":"Once Upon a Time... in Hollywood","vote_average":7.6,"overview":"A faded television actor and his stunt double strive to achieve fame and success in the film industry during the final years of Hollywood's Golden Age in 1969 Los Angeles.","release_date":"2019-07-26"},{"popularity":83.921,"vote_count":345,"video":false,"poster_path":"\/7IRy0iHdaS0JI3ng4ZYlk5gLSFn.jpg","id":506574,"adult":false,"backdrop_path":"\/gzdxeOiO76hDoOSKYCxegj7bk4T.jpg","original_language":"en","original_title":"Descendants 3","genre_ids":[28,12,35,10751,10770],"title":"Descendants 3","vote_average":7.7,"overview":"The teenagers of Disney's most infamous villains return to the Isle of the Lost to recruit a new batch of villainous offspring to join them at Auradon Prep.","release_date":"2019-08-02"},{"popularity":105.042,"vote_count":2192,"video":false,"poster_path":"\/cCTJPelKGLhALq3r51A9uMonxKj.jpg","id":320288,"adult":false,"backdrop_path":"\/cjRUhKyt2Jo3V1KNzc5tpPNfccG.jpg","original_language":"en","original_title":"Dark Phoenix","genre_ids":[28,12,878],"title":"Dark Phoenix","vote_average":6.1,"overview":"The X-Men face their most formidable and powerful foe when one of their own, Jean Grey, starts to spiral out of control. During a rescue mission in outer space, Jean is nearly killed when she's hit by a mysterious cosmic force. Once she returns home, this force not only makes her infinitely more powerful, but far more unstable. The X-Men must now band together to save her soul and battle aliens that want to use Grey's new abilities to rule the galaxy.","release_date":"2019-06-07"},{"popularity":76.323,"vote_count":636,"video":false,"poster_path":"\/a4BfxRK8dBgbQqbRxPs8kmLd8LG.jpg","id":429203,"adult":false,"backdrop_path":"\/6X2YjjYcs8XyZRDmJAHNDlls7L4.jpg","original_language":"en","original_title":"The Old Man & the Gun","genre_ids":[35,80,18],"title":"The Old Man & the Gun","vote_average":6.3,"overview":"The true story of Forrest Tucker, from his audacious escape from San Quentin at the age of 70 to an unprecedented string of heists that confounded authorities and enchanted the public. Wrapped up in the pursuit are a detective, who becomes captivated with Forrest’s commitment to his craft, and a woman, who loves him in spite of his chosen profession.","release_date":"2018-09-28"},{"popularity":79.639,"vote_count":0,"video":false,"poster_path":"\/4zmIbm4LArnXJ2U1EPiCpA1pJ9K.jpg","id":582083,"adult":false,"backdrop_path":"\/lSQjKTyW5tS0uiIXnlIe3hFlq6T.jpg","original_language":"ja","original_title":"仮面ライダービルドNEW WORLD　仮面ライダーグリス","genre_ids":[28,12,878],"title":"Kamen Rider Build NEW WORLD: Kamen Rider Grease","vote_average":0,"overview":"Deputy Officer of the United Nations Alliance, Simon Marcus, who aims to conquer the world with the terrorist organization Downfall along with the mad scientist Keiji Uraga, attack the Kamen Riders with overwhelming strength. It is only on Kamen Rider Grease that the enemy's abilities did not work. In order to defeat this new enemy and rescue Misora, Kazumi Sawatari must create a new item ... but it is told that it requires the  life of his friends, the Three Crows. The ultimate decision must be made.","release_date":"2019-11-27"},{"popularity":72.902,"vote_count":1599,"video":false,"poster_path":"\/fQ40gmFM4p03tXwMxQQKh2cCBW4.jpg","id":373571,"adult":false,"backdrop_path":"\/cNt14e43I2DDW6Xd9zFhrP8eOcA.jpg","original_language":"en","original_title":"Godzilla: King of the Monsters","genre_ids":[28,878],"title":"Godzilla: King of the Monsters","vote_average":6.2,"overview":"Follows the heroic efforts of the crypto-zoological agency Monarch as its members face off against a battery of god-sized monsters, including the mighty Godzilla, who collides with Mothra, Rodan, and his ultimate nemesis, the three-headed King Ghidorah. When these ancient super-species - thought to be mere myths - rise again, they all vie for supremacy, leaving humanity's very existence hanging in the balance.","release_date":"2019-05-31"}]}